<?xml version="1.0" encoding="utf-8"?>
<!-- Generator: Adobe Illustrator 21.1.0, SVG Export Plug-In . SVG Version: 6.00 Build 0)  -->
<svg version="1.1" id="Layer_1" xmlns="http://www.w3.org/2000/svg" xmlns:xlink="http://www.w3.org/1999/xlink" x="0px" y="0px"
	 viewBox="0 0 29.3 29.3" style="enable-background:new 0 0 29.3 29.3;" xml:space="preserve">
<style type="text/css">
	.st0{fill:#7EBCFB;}
	.st1{fill:#FFFFFF;}
</style>
<g transform="translate(0)">
	<circle class="st0" cx="14.7" cy="14.7" r="14.7"/>
	<g transform="translate(6.013 6.012)">
		<path class="st1" d="M8.5,1.5c2.3,0,2.6,0,3.5,0.1c0.5,0,1.1,0.1,1.6,0.3c0.4,0.1,0.7,0.4,1,0.6c0.3,0.3,0.5,0.6,0.6,1
			c0.2,0.5,0.3,1,0.3,1.6c0,0.9,0.1,1.2,0.1,3.5s0,2.5-0.1,3.4c0,0.5-0.1,1.1-0.3,1.6c-0.1,0.4-0.4,0.7-0.6,1
			c-0.3,0.3-0.6,0.5-1,0.6c-0.5,0.2-1,0.3-1.6,0.3c-0.9,0-1.2,0.1-3.5,0.1s-2.6,0-3.5-0.1c-0.5,0-1.1-0.1-1.6-0.3
			c-0.4-0.1-0.7-0.4-1-0.6c-0.3-0.3-0.5-0.6-0.6-1c-0.2-0.5-0.3-1-0.3-1.6c0-0.9-0.1-1.2-0.1-3.5s0-2.5,0.1-3.5
			c0-0.5,0.1-1.1,0.3-1.6c0.1-0.4,0.4-0.7,0.6-1c0.3-0.3,0.6-0.5,1-0.6c0.5-0.2,1-0.3,1.6-0.3C6,1.5,6.3,1.5,8.5,1.5 M8.5,0
			C6.2,0,5.9,0,5,0.1c-0.7,0-1.4,0.2-2.1,0.4C2.4,0.7,1.9,1,1.4,1.4C1,1.9,0.7,2.4,0.4,2.9C0.2,3.6,0.1,4.3,0,5c0,0.9,0,1.2,0,3.5
			s0,2.6,0.1,3.5c0,0.7,0.2,1.4,0.4,2.1c0.2,0.6,0.6,1.1,1,1.5c0.4,0.4,0.9,0.8,1.5,1C3.6,16.9,4.3,17,5,17c0.9,0,1.2,0.1,3.5,0.1
			s2.6,0,3.5-0.1c0.7,0,1.4-0.2,2.1-0.4c0.6-0.2,1.1-0.6,1.5-1c0.4-0.4,0.8-0.9,1-1.5c0.2-0.7,0.4-1.4,0.4-2.1
			c0-0.9,0.1-1.2,0.1-3.5s0-2.6-0.1-3.5c0-0.7-0.2-1.4-0.4-2.1c-0.2-0.6-0.6-1.1-1-1.5c-0.4-0.4-0.9-0.8-1.5-1
			c-0.7-0.2-1.4-0.4-2.1-0.4C11.2,0,10.9,0,8.5,0L8.5,0z"/>
		<path class="st1" d="M8.5,4.2c-2.4,0-4.4,2-4.4,4.4s2,4.4,4.4,4.4c2.4,0,4.4-2,4.4-4.4l0,0C12.9,6.1,11,4.2,8.5,4.2z M8.5,11.4
			c-1.6,0-2.8-1.3-2.8-2.8C5.7,7,7,5.7,8.5,5.7c1.6,0,2.8,1.3,2.8,2.8C11.4,10.1,10.1,11.4,8.5,11.4C8.5,11.4,8.5,11.4,8.5,11.4
			L8.5,11.4z"/>
		<circle class="st1" cx="13.1" cy="4" r="1"/>
	</g>
</g>
</svg>
